{
    "tosnew": {
        "CMOR table" : "Omon",
        "CCCma diag file" : "1m_grid_t",
        "CCCma TS var name" : "sosstsst", 
        "frequency": "mon", 
        "modeling_realm": "ocean", 
        "standard_name": "sea_surface_temperature", 
        "units": "degC", 
        "cell_methods": "area: mean where sea time: mean", 
        "cell_measures": "area: areacello", 
        "long_name": "EXAMPLE VARIABLE ONLY The New and Improved Sea Surface Temperature", 
        "comment": "Comment",
        "dimensions": "longitude latitude time", 
        "out_name": "tosnew", 
        "type": "real", 
        "positive": "", 
        "valid_min": "", 
        "valid_max": "", 
        "ok_min_mean_abs": "", 
        "ok_max_mean_abs": ""
    } 
}
